release_year,name,rating,genre,director
2023,Varisu,6.0,Action|Drama,Vamshi Paidipally
2022,Beast,5.2,Action|Thriller,Nelson Dilipkumar
2021,Master,7.3,Action|Crime|Thriller,Lokesh Kanagaraj
2019,Bigil,6.7,Action|Drama|Sport,Atlee
2018,Sid Sriram & Jonita Gandhi: OMG Ponnu,6.9,Music,A.R. Murugadoss
2018,Bamba Bakya Vipin Aneja Aparna Narayanan: Simtaangaran,6.8,Music,A.R. Murugadoss
2018,Sarkar,6.7,Action|Drama,A.R. Murugadoss
2017,Mersal,7.5,Action|Thriller,Atlee
2017,Bairavaa,5.8,Action|Thriller,Bharathan
2016,Theri,7.3,Action|Crime|Thriller,Atlee
2015,Puli,4.3,Action|Adventure|Fantasy,Chimbudeven
2014,Kaththi,8.1,Action|Drama,A.R. Murugadoss
2014,Jilla,6.2,Action|Crime|Drama,R.T. Neason
2013,Thalaivaa,6.2,Action|Crime|Drama,Director
2012,Thuppakki,8.1,Action|Thriller,A.R. Murugadoss
2012,Rowdy Rathore,5.8,Action|Comedy|Crime,Prabhu Deva
2012,Nanban,7.7,Comedy|Drama,S. Shankar
2011,Velayudham,6.1,Action,Mohan Raja
2011,Kaavalan,7.0,Action|Comedy|Drama,Siddique
2010,Sura,3.0,Action,S.P. Rajkumar
2009,Vettaikaaran,5.1,Action|Crime|Drama,Babu Sivan
2009,Villu,3.6,Action|Thriller,Prabhu Deva
2008,Pandhayam,6.8,Action|Thriller,S.A. Chandrashekhar
2008,Kuruvi,4.2,Action|Comedy|Drama,Dharani
2007,Azhagiya Tamizh Magan,5.0,Action|Drama|Thriller,Bharathan
2007,Pokkiri,7.5,Action|Crime|Thriller,Prabhu Deva
2006,Aathi,4.3,Action|Drama|Thriller,Ramana
2005,Sivakaasi,5.8,Action|Drama,Perarasu
2005,Sachien,7.4,Comedy|Drama|Romance,John Mahendran
2005,Sukran,3.6,Action|Drama|Thriller,S.A. Chandrashekhar
2005,Thirupaachi,6.4,Action|Drama,Perarasu
2004,Madurey,5.0,Action,R. Madhesh
2004,Ghilli,8.1,Action|Drama|Romance,Dharani
2004,Udhaya,4.5,Action|Drama|Thriller,Azhagam Perumal
2003,Thirumalai,7.2,Action|Romance,Ramana
2003,Pudhiya Geethai,4.8,Action|Drama|Romance,Jagan
2003,Vaseegara,6.6,Comedy|Drama|Romance,K. Selvabharathi
2002,Bhagavathy,5.7,Action|Drama,A. Venkatesh
2002,Youth,6.5,Drama|Romance,Vincent Selva
2002,Tamizhan,6.0,Action|Drama,Abdul Majith
2001,Shahjahan,7.7,Drama|Romance,K.S. Ravi
2001,Badri,7.0,Action|Sport,P.A. Arun Prasad
2001,Friends,7.9,Action|Comedy|Drama,Siddique
2000,Priyamanavale,7.5,Drama|Romance,K. Selvabharathi
2000,Kushi,7.9,Comedy|Drama|Romance,S.J. Suryah
2000,Kannukkul Nilavu,6.6,Drama|Mystery|Romance,Fazil
1999,Minsara Kanna,7.0,Drama|Romance,K.S. Ravikumar
1999,Nenjinile,7.1,Action|Crime|Drama,S.A. Chandrashekhar
1999,Endrendrum Kadhal,7.4,Drama|Romance,Manoj Bhatnagar
1999,Thulladha Manamum Thullum,8.3,Drama|Romance,Ezhil
1998,Nilaave Vaa,7.4,Action|Drama|Romance,A. Venkatesh
1998,Priyamudan,8.5,Romance|Thriller,Vincent Selva
1998,Ninaithen Vandhai,7.9,Drama|Romance,K. Selva Bharathy
1997,Kadhalukku Mariyadhai,8.2,Drama|Romance,Fazil
1997,Nerukku Ner,7.5,Action|Drama|Romance,Vasanth
1997,Once More,6.8,Comedy|Drama|Romance,S.A. Chandrashekhar
1997,Love Today,8.7,Drama|Romance,Balasekaran
1997,Kaalamellam Kaathiruppen,7.4,Drama|Romance,R. Sundarajan
1996,Selva,7.3,Action|Romance,A. Venkatesh
1996,Maanbumigu Maanavan,6.8,Action|Romance,S.A. Chandrashekhar
1996,Vasantha Vaasal,8.5,Action|Romance,M.R.
1996,Poove Unakkaga,8.6,Comedy|Drama|Romance,Vikraman
1996,Coimbatore Mappillai,7.4,Comedy|Drama|Romance,C. Ranganathan
1995,Chandralekha,7.5,Drama|Romance,Nambiraj
1995,Vishnu,7.1,Action|Drama|Romance,S.A. Chandrashekhar
1995,Rajavin Parvaiyile,7.1,Drama|Romance,Janaki Soundar
1995,Deva,7.5,Action|Drama|Romance,S.A. Chandrashekhar
1994,Rasigan,7.0,Action|Romance,S.A. Chandrashekhar
1993,Sendhoorapandi,8.0,Action|Drama|Romance,S.A. Chandrashekhar
1992,Naalaiya Theerpu,7.4,Drama|Romance,S.A. Chandrashekhar
1988,Ithu Engal Neethi,7.4,Action|Drama,S.A. Chandrashekhar
1987,Sattam Oru Vilayattu,6.7,Action|Drama,S.A. Chandrashekhar
1986,Vasantha Ragam,7.4,Drama|Family|Musical,S.A. Chandrashekhar
1985,Naan Sigappu Manithan,7.0,Action|Crime|Drama,S.A. Chandrashekhar
1984,Kudumbam,7.3,Drama|Family,S.A. Chandrashekhar
1984,Vetri,7.2,Crime|Thriller,S.A. Chandrashekhar
